{
  "dev": {
    "awscloudformation": {
      "AuthRoleName": "amplify-digitalhuman-dev-181757-authRole",
      "UnauthRoleArn": "arn:aws:iam::827725601803:role/amplify-digitalhuman-dev-181757-unauthRole",
      "AuthRoleArn": "arn:aws:iam::827725601803:role/amplify-digitalhuman-dev-181757-authRole",
      "Region": "ap-southeast-2",
      "DeploymentBucketName": "amplify-digitalhuman-dev-181757-deployment",
      "UnauthRoleName": "amplify-digitalhuman-dev-181757-unauthRole",
      "StackName": "amplify-digitalhuman-dev-181757",
      "StackId": "arn:aws:cloudformation:ap-southeast-2:827725601803:stack/amplify-digitalhuman-dev-181757/ac5e10c0-1aa3-11ec-ba27-06dbd44e092c",
      "AmplifyAppId": "d2nzdak3ox529o"
    },
    "categories": {
      "auth": {
        "digitalhuman1c0ecba2": {}
      }
    }
  }
}