{
  "identityPoolName": "digitalhuman1c0ecba2_identitypool_1c0ecba2",
  "allowUnauthenticatedIdentities": true,
  "resourceNameTruncated": "digita1c0ecba2",
  "userPoolName": "digitalhuman1c0ecba2_userpool_1c0ecba2",
  "autoVerifiedAttributes": ["email"],
  "mfaConfiguration": "OFF",
  "mfaTypes": ["SMS Text Message"],
  "smsAuthenticationMessage": "Your authentication code is {####}",
  "smsVerificationMessage": "Your verification code is {####}",
  "emailVerificationSubject": "Your verification code",
  "emailVerificationMessage": "Your verification code is {####}",
  "defaultPasswordPolicy": false,
  "passwordPolicyMinLength": 8,
  "passwordPolicyCharacters": [],
  "requiredAttributes": ["email"],
  "aliasAttributes": [],
  "userpoolClientGenerateSecret": false,
  "userpoolClientRefreshTokenValidity": 30,
  "userpoolClientWriteAttributes": ["email"],
  "userpoolClientReadAttributes": ["email"],
  "userpoolClientLambdaRole": "digita1c0ecba2_userpoolclient_lambda_role",
  "userpoolClientSetAttributes": false,
  "sharedId": "1c0ecba2",
  "resourceName": "digitalhuman1c0ecba2",
  "authSelections": "identityPoolAndUserPool",
  "authRoleArn": {
    "Fn::GetAtt": ["AuthRole", "Arn"]
  },
  "unauthRoleArn": {
    "Fn::GetAtt": ["UnauthRole", "Arn"]
  },
  "useDefault": "default",
  "userPoolGroupList": [],
  "serviceName": "Cognito",
  "usernameCaseSensitive": false,
  "dependsOn": []
}
